{
  "type": "service_account",
  "project_id": "rikvincloudvisionocr",
  "private_key_id": "1da9793b7027985ec4acdeeb814ffb0752f68bab",
  "private_key": "-----BEGIN PRIVATE KEY-----\nMIIEvQIBADANBgkqhkiG9w0BAQEFAASCBKcwggSjAgEAAoIBAQDAYtZknmG6J+sC\nthrlc9GVL1ziGqLDcAPQUMUDusS1hiLpRlPlrp0EWx58ijlszFwJSV0AWAyKCGsB\nl3u67DSEmW/xwRLj+g8pfAgJemjaAyOETnXG9ie2+9c4Yfl21XEJ/zWskzFKkfjL\npOdoBpRNlCbFOHihoKNRxTVmp0xY0wf/qVLWRAutvDRxpG/CKaLeXS1jcbcyW8OH\ni+KH1Dh5iHAsyF96Zjx9Ow0Ot+4sOKoEiQMj6A8FSjX2KezZwX8lFuhknfPgcDaJ\nh/XOERhQcotY4g2BDkCi/rcSAk9hTm0nFQHL/LuyjLYegdebSh7+gd1MlzmJoJJq\nSz6mKa3HAgMBAAECggEABedCguXlQ8wTxwqFesL6DGTeqcV9dxfJ1iuUUA/8F0Hd\ncmEJFAQup0KQhevL5U3ECTjqFKefAuFNP0hBsLOszODUcYumI765lmFK8deCviXY\ngifSL1/ASjoiGYXQHNhh1pexMvF1Ur917fHKdAO3q0W/hs+7y+HdARZXFCZQDm2l\nlkrlUXSnfA2ixsWTSvNjfI21beIlF3581MHSzO8Z4Dbui8uJt/MvG6R40+S2VAcD\nw1wQfdK7SsepWh8fhFTUab1AW+O0Y3fqD8pzXlyGt0q2RSFvSS8rvSSX4RAp5TGf\no4qzyeGWh4AsuWxJUYClTyT+9WPZjoFz20in1i+3gQKBgQD8lm3Yu6Qeb+Y3C5MT\nsAXVcgSKAe6okm6kl/FPhFK8Jgtuop4yqm6ZLPREfCN6eCcFSmtK6ffWY8FgFWGf\nyYL7JQm7QgVJ/iXu0Xj6zBoM2BNdu2tWNYZWNqkHLhRQK50BDyUV6OldQTQTLXjq\nR1amkGd6CtaF/rWO08amQtePwQKBgQDC/DPC3/Fn/u83hdkVu/+X9vNv4FtXvaQC\nY77Io0eWoxNAFCWnd6I2XfN4Mynfr9MJ4fufSjRP3JuIIB4FFMhp9Wan1ZJj+WuQ\nswdSfJFzHY1xnP37k4ZFRnwAYzldHIyGzi/pREjo7wdj+rVS8Kln6GY+zMnfq6IG\nbA/YkTSfhwKBgQCl4qGXwnwhpTnbktVwC515Nd13SZeUzD6wCD3qDCxN9upxKYme\nGsJyBM0ToTenuftehSZ717b17SPV15T63NwR1pxSiCRzGN+OvbGnfJ3rK4lkeK8g\nuhxUyKcv2PpsQIhnZqvjfMiufyEVKzsLGfj1gUcEJtQGwmY4vCrtjF6HwQKBgD4s\nLtEHmTEg3+QjYLoGbRRmoO7eaiHLDV3Zsj7FmZEVxJCdG/iPNAED6hs8rTBvHuq6\nzQHYpl+Ep287VncmTlVC8422kuwf3sWP4FjT8Yj0NmKwvWeXfavfMrDo8qSW8tQV\nML+/j0P+26tsiJ6+sDW6q8eAgyo3zv0fPdo/SrlHAoGAUvGrb+u0vv6qMtjxEk0j\n23XiEglK60q3Gj+Ys+zkYNTq+Po1sJFtCzgjZkDxA3lj0vjDsotI+6yQgiRKPtzT\na5svZBvxBRv4LEDxhKvGyy2Kc2gwIgyfJjq+cSKMmizkt4ZPhGluAAbrYIXuzXwI\n1yECQK7RMv9AE5uwV7WyYnU=\n-----END PRIVATE KEY-----\n",
  "client_email": "rikvincloudvisionserviceaccoun@rikvincloudvisionocr.iam.gserviceaccount.com",
  "client_id": "111817178709048437078",
  "auth_uri": "https://accounts.google.com/o/oauth2/auth",
  "token_uri": "https://accounts.google.com/o/oauth2/token",
  "auth_provider_x509_cert_url": "https://www.googleapis.com/oauth2/v1/certs",
  "client_x509_cert_url": "https://www.googleapis.com/robot/v1/metadata/x509/rikvincloudvisionserviceaccoun%40rikvincloudvisionocr.iam.gserviceaccount.com"
}
